%YAML 1.1
%TAG !u! tag:unity3d.com,2011:
--- !u!78 &1
TagManager:
  serializedVersion: 2
  tags:
  - Enemy
  - start
  - end
  - Obstacle
  - ObstacleGeo
  - BasicTile
  - meteoriteTile
  - floor
  - CarontePoints
  - PanPoints
  - Decoration
  - Lasered
  layers:
  - Default
  - TransparentFX
  - Ignore Raycast
  - 
  - Water
  - UI
  - Trail
  - Particles
  - Particles Aura
  - Particles Timer
  - 
  - 
  - 
  - 
  - 
  - 
  - 
  - 
  - 
  - 
  - 
  - 
  - 
  - 
  - 
  - 
  - 
  - 
  - 
  - 
  - 
  - 
  m_SortingLayers:
  - name: Default
    uniqueID: 0
    locked: 0
