%YAML 1.1
%TAG !u! tag:unity3d.com,2011:
--- !u!1 &1273157596001961373
GameObject:
  m_ObjectHideFlags: 0
  m_CorrespondingSourceObject: {fileID: 0}
  m_PrefabInstance: {fileID: 0}
  m_PrefabAsset: {fileID: 0}
  serializedVersion: 6
  m_Component:
  - component: {fileID: 5309960797311803654}
  m_Layer: 0
  m_Name: wizardBullet
  m_TagString: Untagged
  m_Icon: {fileID: 0}
  m_NavMeshLayer: 0
  m_StaticEditorFlags: 0
  m_IsActive: 1
--- !u!4 &5309960797311803654
Transform:
  m_ObjectHideFlags: 0
  m_CorrespondingSourceObject: {fileID: 0}
  m_PrefabInstance: {fileID: 0}
  m_PrefabAsset: {fileID: 0}
  m_GameObject: {fileID: 1273157596001961373}
  m_LocalRotation: {x: 0, y: 0, z: 0, w: 1}
  m_LocalPosition: {x: 0, y: 0, z: 0}
  m_LocalScale: {x: 1, y: 1, z: 1}
  m_Children:
  - {fileID: 6208825378085900415}
  m_Father: {fileID: 0}
  m_RootOrder: 0
  m_LocalEulerAnglesHint: {x: 0, y: 0, z: 0}
--- !u!1001 &8184893608315205296
PrefabInstance:
  m_ObjectHideFlags: 0
  serializedVersion: 2
  m_Modification:
    m_TransformParent: {fileID: 5309960797311803654}
    m_Modifications:
    - target: {fileID: 2863366417800210126, guid: 12e322686131a66459e9ee11df010d6e,
        type: 3}
      propertyPath: m_Name
      value: CorrupcionTrail_ParticleSystem
      objectReference: {fileID: 0}
    - target: {fileID: 2863366417800210127, guid: 12e322686131a66459e9ee11df010d6e,
        type: 3}
      propertyPath: m_RootOrder
      value: 0
      objectReference: {fileID: 0}
    - target: {fileID: 2863366417800210127, guid: 12e322686131a66459e9ee11df010d6e,
        type: 3}
      propertyPath: m_LocalPosition.x
      value: 0
      objectReference: {fileID: 0}
    - target: {fileID: 2863366417800210127, guid: 12e322686131a66459e9ee11df010d6e,
        type: 3}
      propertyPath: m_LocalPosition.y
      value: 0.001
      objectReference: {fileID: 0}
    - target: {fileID: 2863366417800210127, guid: 12e322686131a66459e9ee11df010d6e,
        type: 3}
      propertyPath: m_LocalPosition.z
      value: 0
      objectReference: {fileID: 0}
    - target: {fileID: 2863366417800210127, guid: 12e322686131a66459e9ee11df010d6e,
        type: 3}
      propertyPath: m_LocalRotation.w
      value: 0.7071068
      objectReference: {fileID: 0}
    - target: {fileID: 2863366417800210127, guid: 12e322686131a66459e9ee11df010d6e,
        type: 3}
      propertyPath: m_LocalRotation.x
      value: -0.7071068
      objectReference: {fileID: 0}
    - target: {fileID: 2863366417800210127, guid: 12e322686131a66459e9ee11df010d6e,
        type: 3}
      propertyPath: m_LocalRotation.y
      value: -0
      objectReference: {fileID: 0}
    - target: {fileID: 2863366417800210127, guid: 12e322686131a66459e9ee11df010d6e,
        type: 3}
      propertyPath: m_LocalRotation.z
      value: 0
      objectReference: {fileID: 0}
    - target: {fileID: 2863366417800210127, guid: 12e322686131a66459e9ee11df010d6e,
        type: 3}
      propertyPath: m_LocalEulerAnglesHint.x
      value: -90
      objectReference: {fileID: 0}
    - target: {fileID: 2863366417800210127, guid: 12e322686131a66459e9ee11df010d6e,
        type: 3}
      propertyPath: m_LocalEulerAnglesHint.y
      value: 0
      objectReference: {fileID: 0}
    - target: {fileID: 2863366417800210127, guid: 12e322686131a66459e9ee11df010d6e,
        type: 3}
      propertyPath: m_LocalEulerAnglesHint.z
      value: 0
      objectReference: {fileID: 0}
    m_RemovedComponents: []
  m_SourcePrefab: {fileID: 100100000, guid: 12e322686131a66459e9ee11df010d6e, type: 3}
--- !u!4 &6208825378085900415 stripped
Transform:
  m_CorrespondingSourceObject: {fileID: 2863366417800210127, guid: 12e322686131a66459e9ee11df010d6e,
    type: 3}
  m_PrefabInstance: {fileID: 8184893608315205296}
  m_PrefabAsset: {fileID: 0}
