%YAML 1.1
%TAG !u! tag:unity3d.com,2011:
--- !u!1001 &115112341419766838
PrefabInstance:
  m_ObjectHideFlags: 0
  serializedVersion: 2
  m_Modification:
    m_TransformParent: {fileID: 0}
    m_Modifications:
    - target: {fileID: 5351782332177256724, guid: d1bb237cae9c9514fb09f99e7bdaa42c,
        type: 3}
      propertyPath: m_Name
      value: Cinematic_03
      objectReference: {fileID: 0}
    - target: {fileID: 5351782332177256731, guid: d1bb237cae9c9514fb09f99e7bdaa42c,
        type: 3}
      propertyPath: m_Pivot.x
      value: 0.5
      objectReference: {fileID: 0}
    - target: {fileID: 5351782332177256731, guid: d1bb237cae9c9514fb09f99e7bdaa42c,
        type: 3}
      propertyPath: m_Pivot.y
      value: 0.5
      objectReference: {fileID: 0}
    - target: {fileID: 5351782332177256731, guid: d1bb237cae9c9514fb09f99e7bdaa42c,
        type: 3}
      propertyPath: m_RootOrder
      value: 0
      objectReference: {fileID: 0}
    - target: {fileID: 5351782332177256731, guid: d1bb237cae9c9514fb09f99e7bdaa42c,
        type: 3}
      propertyPath: m_AnchorMax.x
      value: 0.5
      objectReference: {fileID: 0}
    - target: {fileID: 5351782332177256731, guid: d1bb237cae9c9514fb09f99e7bdaa42c,
        type: 3}
      propertyPath: m_AnchorMax.y
      value: 1
      objectReference: {fileID: 0}
    - target: {fileID: 5351782332177256731, guid: d1bb237cae9c9514fb09f99e7bdaa42c,
        type: 3}
      propertyPath: m_AnchorMin.x
      value: 0.5
      objectReference: {fileID: 0}
    - target: {fileID: 5351782332177256731, guid: d1bb237cae9c9514fb09f99e7bdaa42c,
        type: 3}
      propertyPath: m_AnchorMin.y
      value: 0
      objectReference: {fileID: 0}
    - target: {fileID: 5351782332177256731, guid: d1bb237cae9c9514fb09f99e7bdaa42c,
        type: 3}
      propertyPath: m_SizeDelta.x
      value: 1080
      objectReference: {fileID: 0}
    - target: {fileID: 5351782332177256731, guid: d1bb237cae9c9514fb09f99e7bdaa42c,
        type: 3}
      propertyPath: m_SizeDelta.y
      value: 0
      objectReference: {fileID: 0}
    - target: {fileID: 5351782332177256731, guid: d1bb237cae9c9514fb09f99e7bdaa42c,
        type: 3}
      propertyPath: m_LocalPosition.x
      value: 0
      objectReference: {fileID: 0}
    - target: {fileID: 5351782332177256731, guid: d1bb237cae9c9514fb09f99e7bdaa42c,
        type: 3}
      propertyPath: m_LocalPosition.y
      value: 0
      objectReference: {fileID: 0}
    - target: {fileID: 5351782332177256731, guid: d1bb237cae9c9514fb09f99e7bdaa42c,
        type: 3}
      propertyPath: m_LocalPosition.z
      value: 0
      objectReference: {fileID: 0}
    - target: {fileID: 5351782332177256731, guid: d1bb237cae9c9514fb09f99e7bdaa42c,
        type: 3}
      propertyPath: m_LocalRotation.w
      value: 1
      objectReference: {fileID: 0}
    - target: {fileID: 5351782332177256731, guid: d1bb237cae9c9514fb09f99e7bdaa42c,
        type: 3}
      propertyPath: m_LocalRotation.x
      value: -0
      objectReference: {fileID: 0}
    - target: {fileID: 5351782332177256731, guid: d1bb237cae9c9514fb09f99e7bdaa42c,
        type: 3}
      propertyPath: m_LocalRotation.y
      value: -0
      objectReference: {fileID: 0}
    - target: {fileID: 5351782332177256731, guid: d1bb237cae9c9514fb09f99e7bdaa42c,
        type: 3}
      propertyPath: m_LocalRotation.z
      value: -0
      objectReference: {fileID: 0}
    - target: {fileID: 5351782332177256731, guid: d1bb237cae9c9514fb09f99e7bdaa42c,
        type: 3}
      propertyPath: m_AnchoredPosition.x
      value: 0
      objectReference: {fileID: 0}
    - target: {fileID: 5351782332177256731, guid: d1bb237cae9c9514fb09f99e7bdaa42c,
        type: 3}
      propertyPath: m_AnchoredPosition.y
      value: 0
      objectReference: {fileID: 0}
    - target: {fileID: 5351782332177256731, guid: d1bb237cae9c9514fb09f99e7bdaa42c,
        type: 3}
      propertyPath: m_LocalEulerAnglesHint.x
      value: 0
      objectReference: {fileID: 0}
    - target: {fileID: 5351782332177256731, guid: d1bb237cae9c9514fb09f99e7bdaa42c,
        type: 3}
      propertyPath: m_LocalEulerAnglesHint.y
      value: 0
      objectReference: {fileID: 0}
    - target: {fileID: 5351782332177256731, guid: d1bb237cae9c9514fb09f99e7bdaa42c,
        type: 3}
      propertyPath: m_LocalEulerAnglesHint.z
      value: 0
      objectReference: {fileID: 0}
    - target: {fileID: 5351782332689234529, guid: d1bb237cae9c9514fb09f99e7bdaa42c,
        type: 3}
      propertyPath: m_VideoClip
      value: 
      objectReference: {fileID: 32900000, guid: 89e0fcf7254355940898c6f1ef64b27d,
        type: 3}
    - target: {fileID: 5351782332689234529, guid: d1bb237cae9c9514fb09f99e7bdaa42c,
        type: 3}
      propertyPath: m_TargetCamera
      value: 
      objectReference: {fileID: 0}
    - target: {fileID: 5351782332689234532, guid: d1bb237cae9c9514fb09f99e7bdaa42c,
        type: 3}
      propertyPath: subtitles.Array.size
      value: 2
      objectReference: {fileID: 0}
    - target: {fileID: 5351782332689234532, guid: d1bb237cae9c9514fb09f99e7bdaa42c,
        type: 3}
      propertyPath: subtitles.Array.data[0].text
      value: 'PostCerbero.1 '
      objectReference: {fileID: 0}
    - target: {fileID: 5351782332689234532, guid: d1bb237cae9c9514fb09f99e7bdaa42c,
        type: 3}
      propertyPath: subtitles.Array.data[1].text
      value: 4.1
      objectReference: {fileID: 0}
    - target: {fileID: 5351782332689234532, guid: d1bb237cae9c9514fb09f99e7bdaa42c,
        type: 3}
      propertyPath: subtitles.Array.data[1].time
      value: 1
      objectReference: {fileID: 0}
    m_RemovedComponents: []
  m_SourcePrefab: {fileID: 100100000, guid: d1bb237cae9c9514fb09f99e7bdaa42c, type: 3}
