%YAML 1.1
%TAG !u! tag:unity3d.com,2011:
--- !u!1 &2325621368030513071
GameObject:
  m_ObjectHideFlags: 0
  m_CorrespondingSourceObject: {fileID: 0}
  m_PrefabInstance: {fileID: 0}
  m_PrefabAsset: {fileID: 0}
  serializedVersion: 6
  m_Component:
  - component: {fileID: 3102299530951138581}
  - component: {fileID: 2063298895424459440}
  - component: {fileID: 4271303745078027898}
  m_Layer: 0
  m_Name: StaticCorruptionTile_TesselatedCube
  m_TagString: Untagged
  m_Icon: {fileID: 0}
  m_NavMeshLayer: 0
  m_StaticEditorFlags: 0
  m_IsActive: 1
--- !u!4 &3102299530951138581
Transform:
  m_ObjectHideFlags: 0
  m_CorrespondingSourceObject: {fileID: 0}
  m_PrefabInstance: {fileID: 0}
  m_PrefabAsset: {fileID: 0}
  m_GameObject: {fileID: 2325621368030513071}
  m_LocalRotation: {x: 0, y: -0, z: -0, w: 1}
  m_LocalPosition: {x: 0.012235, y: -0.09, z: 2.9958}
  m_LocalScale: {x: 67.427246, y: 67.427246, z: 67.427246}
  m_Children:
  - {fileID: 4790279460786681318}
  m_Father: {fileID: 0}
  m_RootOrder: 0
  m_LocalEulerAnglesHint: {x: 0, y: 0, z: 0}
--- !u!33 &2063298895424459440
MeshFilter:
  m_ObjectHideFlags: 0
  m_CorrespondingSourceObject: {fileID: 0}
  m_PrefabInstance: {fileID: 0}
  m_PrefabAsset: {fileID: 0}
  m_GameObject: {fileID: 2325621368030513071}
  m_Mesh: {fileID: 7204565976043522525, guid: 1304778e0aa2adc418bd5d6e2dc39bcc, type: 3}
--- !u!23 &4271303745078027898
MeshRenderer:
  m_ObjectHideFlags: 0
  m_CorrespondingSourceObject: {fileID: 0}
  m_PrefabInstance: {fileID: 0}
  m_PrefabAsset: {fileID: 0}
  m_GameObject: {fileID: 2325621368030513071}
  m_Enabled: 1
  m_CastShadows: 1
  m_ReceiveShadows: 1
  m_DynamicOccludee: 1
  m_MotionVectors: 1
  m_LightProbeUsage: 1
  m_ReflectionProbeUsage: 1
  m_RayTracingMode: 2
  m_RayTraceProcedural: 0
  m_RenderingLayerMask: 1
  m_RendererPriority: 0
  m_Materials:
  - {fileID: 2100000, guid: 9fb667f4f2d2c234b9f2fd59ce4d48a8, type: 2}
  m_StaticBatchInfo:
    firstSubMesh: 0
    subMeshCount: 0
  m_StaticBatchRoot: {fileID: 0}
  m_ProbeAnchor: {fileID: 0}
  m_LightProbeVolumeOverride: {fileID: 0}
  m_ScaleInLightmap: 1
  m_ReceiveGI: 1
  m_PreserveUVs: 0
  m_IgnoreNormalsForChartDetection: 0
  m_ImportantGI: 0
  m_StitchLightmapSeams: 1
  m_SelectedEditorRenderState: 3
  m_MinimumChartSize: 4
  m_AutoUVMaxDistance: 0.5
  m_AutoUVMaxAngle: 89
  m_LightmapParameters: {fileID: 0}
  m_SortingLayerID: 0
  m_SortingLayer: 0
  m_SortingOrder: 0
  m_AdditionalVertexStreams: {fileID: 0}
--- !u!1001 &172340294374666080
PrefabInstance:
  m_ObjectHideFlags: 0
  serializedVersion: 2
  m_Modification:
    m_TransformParent: {fileID: 3102299530951138581}
    m_Modifications:
    - target: {fileID: 691829255696758728, guid: ddd5d1a7a979fb842a37ce48ff78981e,
        type: 3}
      propertyPath: m_Name
      value: FakeLight
      objectReference: {fileID: 0}
    - target: {fileID: 4620195549247314566, guid: ddd5d1a7a979fb842a37ce48ff78981e,
        type: 3}
      propertyPath: m_RootOrder
      value: 0
      objectReference: {fileID: 0}
    - target: {fileID: 4620195549247314566, guid: ddd5d1a7a979fb842a37ce48ff78981e,
        type: 3}
      propertyPath: m_LocalScale.x
      value: 0.0074379
      objectReference: {fileID: 0}
    - target: {fileID: 4620195549247314566, guid: ddd5d1a7a979fb842a37ce48ff78981e,
        type: 3}
      propertyPath: m_LocalScale.y
      value: 0.0074379
      objectReference: {fileID: 0}
    - target: {fileID: 4620195549247314566, guid: ddd5d1a7a979fb842a37ce48ff78981e,
        type: 3}
      propertyPath: m_LocalScale.z
      value: 0.0074379
      objectReference: {fileID: 0}
    - target: {fileID: 4620195549247314566, guid: ddd5d1a7a979fb842a37ce48ff78981e,
        type: 3}
      propertyPath: m_LocalPosition.x
      value: 0
      objectReference: {fileID: 0}
    - target: {fileID: 4620195549247314566, guid: ddd5d1a7a979fb842a37ce48ff78981e,
        type: 3}
      propertyPath: m_LocalPosition.y
      value: 0.0069
      objectReference: {fileID: 0}
    - target: {fileID: 4620195549247314566, guid: ddd5d1a7a979fb842a37ce48ff78981e,
        type: 3}
      propertyPath: m_LocalPosition.z
      value: 0
      objectReference: {fileID: 0}
    - target: {fileID: 4620195549247314566, guid: ddd5d1a7a979fb842a37ce48ff78981e,
        type: 3}
      propertyPath: m_LocalRotation.w
      value: 1
      objectReference: {fileID: 0}
    - target: {fileID: 4620195549247314566, guid: ddd5d1a7a979fb842a37ce48ff78981e,
        type: 3}
      propertyPath: m_LocalRotation.x
      value: 0
      objectReference: {fileID: 0}
    - target: {fileID: 4620195549247314566, guid: ddd5d1a7a979fb842a37ce48ff78981e,
        type: 3}
      propertyPath: m_LocalRotation.y
      value: 0
      objectReference: {fileID: 0}
    - target: {fileID: 4620195549247314566, guid: ddd5d1a7a979fb842a37ce48ff78981e,
        type: 3}
      propertyPath: m_LocalRotation.z
      value: 0
      objectReference: {fileID: 0}
    - target: {fileID: 4620195549247314566, guid: ddd5d1a7a979fb842a37ce48ff78981e,
        type: 3}
      propertyPath: m_LocalEulerAnglesHint.x
      value: 0
      objectReference: {fileID: 0}
    - target: {fileID: 4620195549247314566, guid: ddd5d1a7a979fb842a37ce48ff78981e,
        type: 3}
      propertyPath: m_LocalEulerAnglesHint.y
      value: 0
      objectReference: {fileID: 0}
    - target: {fileID: 4620195549247314566, guid: ddd5d1a7a979fb842a37ce48ff78981e,
        type: 3}
      propertyPath: m_LocalEulerAnglesHint.z
      value: 0
      objectReference: {fileID: 0}
    m_RemovedComponents: []
  m_SourcePrefab: {fileID: 100100000, guid: ddd5d1a7a979fb842a37ce48ff78981e, type: 3}
--- !u!4 &4790279460786681318 stripped
Transform:
  m_CorrespondingSourceObject: {fileID: 4620195549247314566, guid: ddd5d1a7a979fb842a37ce48ff78981e,
    type: 3}
  m_PrefabInstance: {fileID: 172340294374666080}
  m_PrefabAsset: {fileID: 0}
