%YAML 1.1
%TAG !u! tag:unity3d.com,2011:
--- !u!1 &8268131701273150879
GameObject:
  m_ObjectHideFlags: 0
  m_CorrespondingSourceObject: {fileID: 0}
  m_PrefabInstance: {fileID: 0}
  m_PrefabAsset: {fileID: 0}
  serializedVersion: 6
  m_Component:
  - component: {fileID: 8788103237492809509}
  - component: {fileID: 5645902873548492928}
  - component: {fileID: 7619722825353913418}
  m_Layer: 0
  m_Name: FosoDeCerbero
  m_TagString: Untagged
  m_Icon: {fileID: 0}
  m_NavMeshLayer: 0
  m_StaticEditorFlags: 0
  m_IsActive: 1
--- !u!4 &8788103237492809509
Transform:
  m_ObjectHideFlags: 0
  m_CorrespondingSourceObject: {fileID: 0}
  m_PrefabInstance: {fileID: 0}
  m_PrefabAsset: {fileID: 0}
  m_GameObject: {fileID: 8268131701273150879}
  m_LocalRotation: {x: 0, y: -0, z: -0, w: 1}
  m_LocalPosition: {x: 19.06, y: -4.7327666, z: 19.917}
  m_LocalScale: {x: 1, y: 1, z: 0.8880359}
  m_Children:
  - {fileID: 4494908502587501141}
  m_Father: {fileID: 0}
  m_RootOrder: 0
  m_LocalEulerAnglesHint: {x: 0, y: 0, z: 0}
--- !u!33 &5645902873548492928
MeshFilter:
  m_ObjectHideFlags: 0
  m_CorrespondingSourceObject: {fileID: 0}
  m_PrefabInstance: {fileID: 0}
  m_PrefabAsset: {fileID: 0}
  m_GameObject: {fileID: 8268131701273150879}
  m_Mesh: {fileID: 1033499137149733553, guid: d473ddee25f436e468930d257f8df9cf, type: 3}
--- !u!23 &7619722825353913418
MeshRenderer:
  m_ObjectHideFlags: 0
  m_CorrespondingSourceObject: {fileID: 0}
  m_PrefabInstance: {fileID: 0}
  m_PrefabAsset: {fileID: 0}
  m_GameObject: {fileID: 8268131701273150879}
  m_Enabled: 1
  m_CastShadows: 1
  m_ReceiveShadows: 1
  m_DynamicOccludee: 1
  m_MotionVectors: 1
  m_LightProbeUsage: 1
  m_ReflectionProbeUsage: 1
  m_RayTracingMode: 2
  m_RayTraceProcedural: 0
  m_RenderingLayerMask: 1
  m_RendererPriority: 0
  m_Materials:
  - {fileID: 2100000, guid: 38ab7b0bc53a59f45862b1eb772473b1, type: 2}
  m_StaticBatchInfo:
    firstSubMesh: 0
    subMeshCount: 0
  m_StaticBatchRoot: {fileID: 0}
  m_ProbeAnchor: {fileID: 0}
  m_LightProbeVolumeOverride: {fileID: 0}
  m_ScaleInLightmap: 1
  m_ReceiveGI: 1
  m_PreserveUVs: 0
  m_IgnoreNormalsForChartDetection: 0
  m_ImportantGI: 0
  m_StitchLightmapSeams: 1
  m_SelectedEditorRenderState: 3
  m_MinimumChartSize: 4
  m_AutoUVMaxDistance: 0.5
  m_AutoUVMaxAngle: 89
  m_LightmapParameters: {fileID: 0}
  m_SortingLayerID: 0
  m_SortingLayer: 0
  m_SortingOrder: 0
  m_AdditionalVertexStreams: {fileID: 0}
--- !u!1001 &9115043926567710931
PrefabInstance:
  m_ObjectHideFlags: 0
  serializedVersion: 2
  m_Modification:
    m_TransformParent: {fileID: 8788103237492809509}
    m_Modifications:
    - target: {fileID: 691829255696758728, guid: 36f0701799d5b6e4aabfcee42d4c115f,
        type: 3}
      propertyPath: m_Name
      value: FakeLight_V2
      objectReference: {fileID: 0}
    - target: {fileID: 4620195549247314566, guid: 36f0701799d5b6e4aabfcee42d4c115f,
        type: 3}
      propertyPath: m_RootOrder
      value: 0
      objectReference: {fileID: 0}
    - target: {fileID: 4620195549247314566, guid: 36f0701799d5b6e4aabfcee42d4c115f,
        type: 3}
      propertyPath: m_LocalScale.x
      value: 2.1868086
      objectReference: {fileID: 0}
    - target: {fileID: 4620195549247314566, guid: 36f0701799d5b6e4aabfcee42d4c115f,
        type: 3}
      propertyPath: m_LocalScale.y
      value: 2.1868086
      objectReference: {fileID: 0}
    - target: {fileID: 4620195549247314566, guid: 36f0701799d5b6e4aabfcee42d4c115f,
        type: 3}
      propertyPath: m_LocalScale.z
      value: 2.1868086
      objectReference: {fileID: 0}
    - target: {fileID: 4620195549247314566, guid: 36f0701799d5b6e4aabfcee42d4c115f,
        type: 3}
      propertyPath: m_LocalPosition.x
      value: -0.08
      objectReference: {fileID: 0}
    - target: {fileID: 4620195549247314566, guid: 36f0701799d5b6e4aabfcee42d4c115f,
        type: 3}
      propertyPath: m_LocalPosition.y
      value: 2.75
      objectReference: {fileID: 0}
    - target: {fileID: 4620195549247314566, guid: 36f0701799d5b6e4aabfcee42d4c115f,
        type: 3}
      propertyPath: m_LocalPosition.z
      value: -0.1
      objectReference: {fileID: 0}
    - target: {fileID: 4620195549247314566, guid: 36f0701799d5b6e4aabfcee42d4c115f,
        type: 3}
      propertyPath: m_LocalRotation.w
      value: 1
      objectReference: {fileID: 0}
    - target: {fileID: 4620195549247314566, guid: 36f0701799d5b6e4aabfcee42d4c115f,
        type: 3}
      propertyPath: m_LocalRotation.x
      value: 0
      objectReference: {fileID: 0}
    - target: {fileID: 4620195549247314566, guid: 36f0701799d5b6e4aabfcee42d4c115f,
        type: 3}
      propertyPath: m_LocalRotation.y
      value: 0
      objectReference: {fileID: 0}
    - target: {fileID: 4620195549247314566, guid: 36f0701799d5b6e4aabfcee42d4c115f,
        type: 3}
      propertyPath: m_LocalRotation.z
      value: 0
      objectReference: {fileID: 0}
    - target: {fileID: 4620195549247314566, guid: 36f0701799d5b6e4aabfcee42d4c115f,
        type: 3}
      propertyPath: m_LocalEulerAnglesHint.x
      value: 0
      objectReference: {fileID: 0}
    - target: {fileID: 4620195549247314566, guid: 36f0701799d5b6e4aabfcee42d4c115f,
        type: 3}
      propertyPath: m_LocalEulerAnglesHint.y
      value: 0
      objectReference: {fileID: 0}
    - target: {fileID: 4620195549247314566, guid: 36f0701799d5b6e4aabfcee42d4c115f,
        type: 3}
      propertyPath: m_LocalEulerAnglesHint.z
      value: 0
      objectReference: {fileID: 0}
    m_RemovedComponents: []
  m_SourcePrefab: {fileID: 100100000, guid: 36f0701799d5b6e4aabfcee42d4c115f, type: 3}
--- !u!4 &4494908502587501141 stripped
Transform:
  m_CorrespondingSourceObject: {fileID: 4620195549247314566, guid: 36f0701799d5b6e4aabfcee42d4c115f,
    type: 3}
  m_PrefabInstance: {fileID: 9115043926567710931}
  m_PrefabAsset: {fileID: 0}
