%YAML 1.1
%TAG !u! tag:unity3d.com,2011:
--- !u!114 &11400000
MonoBehaviour:
  m_ObjectHideFlags: 0
  m_CorrespondingSourceObject: {fileID: 0}
  m_PrefabInstance: {fileID: 0}
  m_PrefabAsset: {fileID: 0}
  m_GameObject: {fileID: 0}
  m_Enabled: 1
  m_EditorHideFlags: 0
  m_Script: {fileID: 11500000, guid: d0c6aca47d2345f43bd2c64d9dd5d865, type: 3}
  m_Name: Death Anim Data
  m_EditorClassIdentifier: 
  timeInterImages: 0.3
  caidaLago:
  - {fileID: 21300000, guid: c79a980ed6f85c84cb7e0d2d5605eaf5, type: 3}
  - {fileID: 21300000, guid: 15485bbb12b4ad54a8ba919cf7ffb69d, type: 3}
  - {fileID: 21300000, guid: 2d80b364c105fa24f815d8da41bd2c85, type: 3}
  - {fileID: 21300000, guid: b47c3eb6fca597c479d4339124b8746e, type: 3}
  genericChoque:
  - {fileID: 21300000, guid: feeefa1ebe5c2a547839e804601533e1, type: 3}
  - {fileID: 21300000, guid: 7e160830c037ef746952ffa5a386ab70, type: 3}
  - {fileID: 21300000, guid: 07108efff15853b4ca62b10383073a74, type: 3}
  - {fileID: 21300000, guid: 0d0a76a78b705134abdf29fde6f5b604, type: 3}
  corrupcion:
  - {fileID: 21300000, guid: 2f15059c58306c349ae000cf7bd75c4f, type: 3}
  - {fileID: 21300000, guid: a5466c060912877459bfe717bc86270a, type: 3}
  - {fileID: 21300000, guid: 6eca549488cb7f34db1d810e51b78372, type: 3}
  - {fileID: 21300000, guid: e8a184d6b15e0404f99fc41c8bda6de8, type: 3}
  escudo:
  - {fileID: 21300000, guid: d3acffcb89e8b794ca7bb6aa94a4f716, type: 3}
  - {fileID: 21300000, guid: 2e7ca0669b2400e4c866cbd26f34ea37, type: 3}
  - {fileID: 21300000, guid: ef9ab8764f2e0e44d9eb18ca73c0df62, type: 3}
  - {fileID: 21300000, guid: 47a651ec70ecced4d8bed5b9f81dcd3a, type: 3}
  mago:
  - {fileID: 21300000, guid: 20a93f19b37f85841be04ea51fd2cce0, type: 3}
  - {fileID: 21300000, guid: 68790b113dcb81d409f77b80186d3df3, type: 3}
  - {fileID: 21300000, guid: e8c0a752b12e890439b491f9df62e99f, type: 3}
  - {fileID: 21300000, guid: 563e5ce683b27b847b26570c3ebadae1, type: 3}
  tramposo:
  - {fileID: 21300000, guid: 0e6aa439374dc5242a7d1a0ddd22714c, type: 3}
  - {fileID: 21300000, guid: b4b540c5f086b744287a5f734f321370, type: 3}
  - {fileID: 21300000, guid: f25c08fa4b8321c48a8b69ae62d9d4ae, type: 3}
  - {fileID: 21300000, guid: d12f63d1d9f58b2418503245d9d66d21, type: 3}
  necrofargo:
  - {fileID: 21300000, guid: 3a4a04a97855dd4449cb1e15bcd718ab, type: 3}
  - {fileID: 21300000, guid: 622e4aca556efe94dbf5929d3b806320, type: 3}
  - {fileID: 21300000, guid: 0e365c3e582ef4a4d85182fa5da410b0, type: 3}
  - {fileID: 21300000, guid: 96d81503b189fc0428efdc6502b568df, type: 3}
  laser:
  - {fileID: 21300000, guid: c678d3bf3d1fa5e48bb0d7876380e830, type: 3}
  - {fileID: 21300000, guid: cb24054d68accbd48bdc5620e30f16f4, type: 3}
  - {fileID: 21300000, guid: 727ca7f66de495946a225d42124059fb, type: 3}
  - {fileID: 21300000, guid: e545b785cba6b074685bfb46d3a7257a, type: 3}
  meteorito:
  - {fileID: 21300000, guid: 7dce361de409e194f98dbe1d012ee7cc, type: 3}
  - {fileID: 21300000, guid: 3a5c24794011c624eb7aeb1e283ab78c, type: 3}
  - {fileID: 21300000, guid: abd838a8025494346840f2f387cd84ff, type: 3}
  - {fileID: 21300000, guid: d2217dbad4a12ca4cab9cdea3df3b93a, type: 3}
  pobre:
  - {fileID: 21300000, guid: 5bdbf98e862ccfd44a5fe58d9a47efe2, type: 3}
  - {fileID: 21300000, guid: 47a74f37419a73e41a8fe918397b9588, type: 3}
  - {fileID: 21300000, guid: 2a2233164b54d5742a6252e7b97d2fe1, type: 3}
  - {fileID: 21300000, guid: a88159e511317ab429613d1ebd30504c, type: 3}
