%YAML 1.1
%TAG !u! tag:unity3d.com,2011:
--- !u!1 &2950861167561255045
GameObject:
  m_ObjectHideFlags: 0
  m_CorrespondingSourceObject: {fileID: 0}
  m_PrefabInstance: {fileID: 0}
  m_PrefabAsset: {fileID: 0}
  serializedVersion: 6
  m_Component:
  - component: {fileID: 2273577528025747514}
  m_Layer: 0
  m_Name: PolloPivot
  m_TagString: Untagged
  m_Icon: {fileID: 0}
  m_NavMeshLayer: 0
  m_StaticEditorFlags: 0
  m_IsActive: 1
--- !u!4 &2273577528025747514
Transform:
  m_ObjectHideFlags: 0
  m_CorrespondingSourceObject: {fileID: 0}
  m_PrefabInstance: {fileID: 0}
  m_PrefabAsset: {fileID: 0}
  m_GameObject: {fileID: 2950861167561255045}
  m_LocalRotation: {x: 0, y: 0, z: 0, w: 1}
  m_LocalPosition: {x: 0, y: 0, z: 0}
  m_LocalScale: {x: 1, y: 1, z: 1}
  m_Children:
  - {fileID: 5622547152492043590}
  m_Father: {fileID: 0}
  m_RootOrder: 0
  m_LocalEulerAnglesHint: {x: 0, y: 0, z: 0}
--- !u!1001 &5300162425563216557
PrefabInstance:
  m_ObjectHideFlags: 0
  serializedVersion: 2
  m_Modification:
    m_TransformParent: {fileID: 2273577528025747514}
    m_Modifications:
    - target: {fileID: -8679921383154817045, guid: 100e05560a1aae14caed626ce628fa36,
        type: 3}
      propertyPath: m_RootOrder
      value: 0
      objectReference: {fileID: 0}
    - target: {fileID: -8679921383154817045, guid: 100e05560a1aae14caed626ce628fa36,
        type: 3}
      propertyPath: m_LocalScale.x
      value: 1.5
      objectReference: {fileID: 0}
    - target: {fileID: -8679921383154817045, guid: 100e05560a1aae14caed626ce628fa36,
        type: 3}
      propertyPath: m_LocalScale.y
      value: 1.5
      objectReference: {fileID: 0}
    - target: {fileID: -8679921383154817045, guid: 100e05560a1aae14caed626ce628fa36,
        type: 3}
      propertyPath: m_LocalScale.z
      value: 1.5
      objectReference: {fileID: 0}
    - target: {fileID: -8679921383154817045, guid: 100e05560a1aae14caed626ce628fa36,
        type: 3}
      propertyPath: m_LocalPosition.x
      value: -0.015
      objectReference: {fileID: 0}
    - target: {fileID: -8679921383154817045, guid: 100e05560a1aae14caed626ce628fa36,
        type: 3}
      propertyPath: m_LocalPosition.y
      value: -1.519
      objectReference: {fileID: 0}
    - target: {fileID: -8679921383154817045, guid: 100e05560a1aae14caed626ce628fa36,
        type: 3}
      propertyPath: m_LocalPosition.z
      value: -0.016
      objectReference: {fileID: 0}
    - target: {fileID: -8679921383154817045, guid: 100e05560a1aae14caed626ce628fa36,
        type: 3}
      propertyPath: m_LocalRotation.w
      value: -0.0139497565
      objectReference: {fileID: 0}
    - target: {fileID: -8679921383154817045, guid: 100e05560a1aae14caed626ce628fa36,
        type: 3}
      propertyPath: m_LocalRotation.x
      value: -0.022781814
      objectReference: {fileID: 0}
    - target: {fileID: -8679921383154817045, guid: 100e05560a1aae14caed626ce628fa36,
        type: 3}
      propertyPath: m_LocalRotation.y
      value: 0.99535936
      objectReference: {fileID: 0}
    - target: {fileID: -8679921383154817045, guid: 100e05560a1aae14caed626ce628fa36,
        type: 3}
      propertyPath: m_LocalRotation.z
      value: -0.09244559
      objectReference: {fileID: 0}
    - target: {fileID: -8679921383154817045, guid: 100e05560a1aae14caed626ce628fa36,
        type: 3}
      propertyPath: m_LocalEulerAnglesHint.x
      value: 10.642
      objectReference: {fileID: 0}
    - target: {fileID: -8679921383154817045, guid: 100e05560a1aae14caed626ce628fa36,
        type: 3}
      propertyPath: m_LocalEulerAnglesHint.y
      value: 181.374
      objectReference: {fileID: 0}
    - target: {fileID: -8679921383154817045, guid: 100e05560a1aae14caed626ce628fa36,
        type: 3}
      propertyPath: m_LocalEulerAnglesHint.z
      value: -2.494
      objectReference: {fileID: 0}
    - target: {fileID: 919132149155446097, guid: 100e05560a1aae14caed626ce628fa36,
        type: 3}
      propertyPath: m_Name
      value: POLLO
      objectReference: {fileID: 0}
    m_RemovedComponents: []
  m_SourcePrefab: {fileID: 100100000, guid: 100e05560a1aae14caed626ce628fa36, type: 3}
--- !u!4 &5622547152492043590 stripped
Transform:
  m_CorrespondingSourceObject: {fileID: -8679921383154817045, guid: 100e05560a1aae14caed626ce628fa36,
    type: 3}
  m_PrefabInstance: {fileID: 5300162425563216557}
  m_PrefabAsset: {fileID: 0}
